Визуализация в ggplot2: кодим красивое
…
Предобработаем — посчитаем суммарный балл по шкалам:

taia %>% 
  pivot_longer(1:60, names_to = "item", values_to = "score") %>% 
  mutate(subscale = str_remove_all(item, "[:digit:]{2}") %>% toupper()) %>%
  group_by(id, subscale) %>% 
  summarise(subscale_score = sum(score))

## `summarise()` has grouped output by 'id'. You can override using the `.groups` argument.

## # A tibble: 300 x 3
## # Groups:   id [50]
##       id subscale subscale_score
##    <dbl> <chr>             <dbl>
##  1     1 CO                   18
##  2     1 DE                   19
##  3     1 FA                   13
##  4     1 PR                   24
##  5     1 UN                   29
##  6     1 UT                   27
##  7     2 CO                   21
##  8     2 DE                   18
##  9     2 FA                   14
## 10     2 PR                   19
## # … with 290 more rows
…
