ANOVA a.k.a. Дисперсионный анализ
…
## ── Conflicts ────────────────────────────────────────── tidyverse_conflicts() ──
## x dplyr::filter() masks stats::filter()
## x dplyr::lag()    masks stats::lag()

share %>% 
  group_by(id, trialtype, setsize, platform) %>% 
  summarize(n = n())

## `summarise()` has grouped output by 'id', 'trialtype', 'setsize'. You can override using the `.groups` argument.

## # A tibble: 216 x 5
## # Groups:   id, trialtype, setsize [216]
##       id trialtype setsize platform     n
##    <int> <chr>       <int> <chr>    <int>
##  1     1 dots            8 ios         50
##  2     1 dots           12 ios         50
##  3     1 dots           16 ios         50
##  4     1 tray            8 ios         50
##  5     1 tray           12 ios         50
##  6     1 tray           16 ios         50
##  7     2 dots            8 ios         50
##  8     2 dots           12 ios         50
##  9     2 dots           16 ios         50
## 10     2 tray            8 ios         50
## # … with 206 more rows
…
